<?xml version="1.0" encoding="iso-8859-1"?>
<!-- Generator: Adobe Illustrator 19.0.0, SVG Export Plug-In . SVG Version: 6.00 Build 0)  -->
<svg xmlns="http://www.w3.org/2000/svg" xmlns:xlink="http://www.w3.org/1999/xlink" version="1.1" id="Layer_1" x="0px" y="0px" viewBox="0 0 512 512" style="enable-background:new 0 0 512 512;" xml:space="preserve" width="512px" height="512px">
<g>
	<g>
		<polygon points="457.133,430.154 457.133,471.862 379.368,471.862 379.368,486.631 471.903,486.631 471.903,430.154   " fill="#11afa2"/>
	</g>
</g>
<g>
	<g>
		<rect x="348.327" y="471.867" width="16.857" height="14.769" fill="#11afa2"/>
	</g>
</g>
<g>
	<g>
		<rect x="40.097" y="379.52" width="14.769" height="59.922" fill="#11afa2"/>
	</g>
</g>
<g>
	<g>
		<rect x="40.097" y="349.922" width="14.769" height="13.577" fill="#11afa2"/>
	</g>
</g>
<g>
	<g>
		<path d="M363.691,100.083C361.371,44.504,315.437,0,259.297,0h-6.592C196.564,0,150.63,44.504,148.309,100.083H14.728V219.39    v12.567V512h482.544V231.957V219.39V100.083H363.691z M252.703,14.769h6.592c47.995,0,87.311,37.881,89.62,85.314h-24.324    c-2.84-34.251-31.603-61.259-66.575-61.259h-4.035c-34.972,0-63.734,27.008-66.575,61.259h-24.324    C165.393,52.65,204.708,14.769,252.703,14.769z M309.777,100.083H202.223c2.786-26.096,24.936-46.49,51.759-46.49h4.035    C284.84,53.594,306.99,73.987,309.777,100.083z M29.497,114.852h118.711h38.95h137.683h38.95h118.711v117.104    c0,39.456-32.1,71.557-71.557,71.557H297.787v-66.509h-83.574v66.509H101.054c-39.456,0-71.557-32.1-71.557-71.557V114.852z     M283.019,251.773v118.249h-54.037V251.773H283.019z M482.504,497.231L482.504,497.231H29.497V280.197    c15.529,22.962,41.811,38.085,71.557,38.085h113.159v66.51h83.575v-66.51h113.159c29.746,0,56.027-15.124,71.557-38.085V497.231z" fill="#11afa2"/>
	</g>
</g>
<g>
	<g>
		<path d="M59.367,249.962l-13.391,6.23c9.259,19.905,28.509,33.817,50.234,36.308l1.683-14.673    C81.238,275.917,66.475,265.241,59.367,249.962z" fill="#11afa2"/>
	</g>
</g>
<g>
	<g>
		<rect x="355.732" y="125.45" width="21.49" height="14.769" fill="#11afa2"/>
	</g>
</g>
<g>
	<g>
		<polygon points="403.923,125.453 403.923,140.222 457.133,140.222 457.133,167.927 471.903,167.927 471.903,125.453   " fill="#11afa2"/>
	</g>
</g>
<g>
	<g>
		<path d="M256,319.063c-12.538,0-22.739,10.2-22.739,22.738s10.2,22.738,22.739,22.738s22.739-10.2,22.739-22.738    S268.538,319.063,256,319.063z M256,349.769c-4.394,0-7.969-3.575-7.969-7.968c0-4.393,3.575-7.969,7.969-7.969    s7.969,3.575,7.969,7.969C263.969,346.194,260.394,349.769,256,349.769z" fill="#11afa2"/>
	</g>
</g>
<g>
</g>
<g>
</g>
<g>
</g>
<g>
</g>
<g>
</g>
<g>
</g>
<g>
</g>
<g>
</g>
<g>
</g>
<g>
</g>
<g>
</g>
<g>
</g>
<g>
</g>
<g>
</g>
<g>
</g>
</svg>
