<?xml version="1.0" encoding="iso-8859-1"?>
<!-- Generator: Adobe Illustrator 19.0.0, SVG Export Plug-In . SVG Version: 6.00 Build 0)  -->
<svg xmlns="http://www.w3.org/2000/svg" xmlns:xlink="http://www.w3.org/1999/xlink" version="1.1" id="Layer_1" x="0px" y="0px" viewBox="0 0 512 512" style="enable-background:new 0 0 512 512;" xml:space="preserve" width="512px" height="512px">
<g>
	<g>
		<path d="M502,37.666H10c-5.523,0-10,4.478-10,10V159.02v305.315c0,5.522,4.477,10,10,10h492c5.522,0,10-4.478,10-10V159.02V47.666    C512,42.143,507.522,37.666,502,37.666z M492,454.333H20v-26.031h399.45c5.522,0,10-4.478,10-10c0-5.522-4.478-10-10-10H20V169.02    h472V454.333z M492,149.019H20V57.666h472V149.019z" fill="#FFFFFF"/>
	</g>
</g>
<g>
	<g>
		<path d="M458.971,71.656H330.406c-5.523,0-10,4.478-10,10v43.371c0,5.522,4.477,10,10,10H458.97c5.522,0,10-4.478,10-10V81.656    C468.971,76.135,464.493,71.656,458.971,71.656z M340.406,115.028V91.656H448.97v23.371H340.406z" fill="#FFFFFF"/>
	</g>
</g>
<g>
	<g>
		<path d="M101.83,101.383c-0.13-0.63-0.33-1.26-0.58-1.87c-0.25-0.6-0.55-1.18-0.92-1.72c-0.36-0.55-0.78-1.06-1.24-1.52    c-0.46-0.46-0.97-0.881-1.52-1.25c-0.54-0.36-1.12-0.66-1.72-0.91c-0.61-0.25-1.24-0.45-1.88-0.57c-1.29-0.26-2.61-0.26-3.9,0    c-0.64,0.12-1.27,0.32-1.87,0.57c-0.61,0.25-1.19,0.55-1.73,0.91c-0.55,0.369-1.06,0.79-1.52,1.25c-0.46,0.46-0.88,0.97-1.24,1.52    c-0.36,0.54-0.67,1.12-0.92,1.72c-0.25,0.61-0.45,1.24-0.57,1.87c-0.14,0.65-0.2,1.311-0.2,1.96c0,0.65,0.06,1.31,0.2,1.95    c0.12,0.64,0.32,1.271,0.57,1.87c0.25,0.61,0.56,1.189,0.92,1.729c0.36,0.551,0.78,1.061,1.24,1.521s0.97,0.88,1.52,1.24    c0.54,0.359,1.12,0.67,1.73,0.92c0.6,0.25,1.23,0.45,1.87,0.569c0.64,0.131,1.3,0.2,1.95,0.2c0.65,0,1.31-0.069,1.95-0.2    c0.64-0.119,1.27-0.319,1.87-0.569c0.61-0.25,1.19-0.561,1.73-0.92c0.55-0.36,1.06-0.78,1.52-1.24c0.46-0.46,0.88-0.97,1.24-1.521    c0.36-0.54,0.67-1.119,0.92-1.729c0.25-0.6,0.45-1.23,0.58-1.87s0.19-1.3,0.19-1.95S101.96,102.033,101.83,101.383z" fill="#FFFFFF"/>
	</g>
</g>
<g>
	<g>
		<path d="M271.668,93.343H133.525c-5.523,0-10,4.478-10,10c0,5.522,4.477,10,10,10h138.143c5.522,0,10-4.478,10-10    C281.668,97.82,277.19,93.343,271.668,93.343z" fill="#FFFFFF"/>
	</g>
</g>
<g>
	<g>
		<path d="M470.759,416.344c-0.13-0.63-0.32-1.26-0.57-1.87c-0.25-0.6-0.56-1.18-0.92-1.72c-0.37-0.55-0.779-1.06-1.25-1.52    c-0.46-0.46-0.97-0.881-1.51-1.25c-0.55-0.36-1.13-0.67-1.729-0.91c-0.601-0.25-1.23-0.45-1.87-0.58c-1.29-0.26-2.62-0.26-3.91,0    c-0.641,0.13-1.271,0.33-1.87,0.58c-0.6,0.24-1.19,0.55-1.73,0.91c-0.55,0.369-1.06,0.79-1.52,1.25    c-0.46,0.46-0.88,0.97-1.24,1.52c-0.359,0.54-0.67,1.12-0.92,1.72c-0.25,0.61-0.439,1.24-0.57,1.87    c-0.13,0.65-0.189,1.31-0.189,1.96c0,0.65,0.06,1.311,0.189,1.95c0.13,0.64,0.32,1.27,0.57,1.87c0.25,0.61,0.561,1.191,0.92,1.729    c0.36,0.551,0.78,1.061,1.24,1.521c0.46,0.46,0.97,0.88,1.52,1.24c0.551,0.359,1.131,0.67,1.73,0.92    c0.6,0.25,1.229,0.439,1.87,0.569c0.649,0.131,1.3,0.2,1.95,0.2c0.659,0,1.31-0.069,1.96-0.2c0.64-0.13,1.27-0.319,1.87-0.569    c0.6-0.25,1.18-0.561,1.729-0.92c0.54-0.36,1.05-0.78,1.51-1.24c0.471-0.46,0.88-0.97,1.25-1.521    c0.36-0.539,0.67-1.119,0.92-1.729c0.25-0.6,0.44-1.23,0.57-1.87s0.19-1.3,0.19-1.95    C470.949,417.654,470.888,416.993,470.759,416.344z" fill="#FFFFFF"/>
	</g>
</g>
<g>
	<g>
		<path d="M439.109,292.073H300.724c-5.522,0-10,4.478-10,10v53.969c0,5.523,4.478,10,10,10H439.11c5.522,0,10-4.477,10-10v-53.969    C449.109,296.55,444.632,292.073,439.109,292.073z M429.11,346.042L429.11,346.042H310.724v-33.969H429.11V346.042z" fill="#FFFFFF"/>
	</g>
</g>
<g>
	<g>
		<path d="M253.516,299.404H64.211c-5.523,0-10,4.478-10,10v53.97c0,5.522,4.477,10,10,10h189.305c5.523,0,10-4.478,10-10v-53.97    C263.516,303.883,259.038,299.404,253.516,299.404z M243.516,353.375H74.211v-33.97h169.305V353.375z" fill="#FFFFFF"/>
	</g>
</g>
<g>
	<g>
		<path d="M202.596,196.593H64.211c-5.523,0-10,4.478-10,10v53.97c0,5.522,4.477,10,10,10h138.385c5.523,0,10-4.478,10-10v-53.97    C212.596,201.071,208.119,196.593,202.596,196.593z M192.596,250.563H74.211v-33.97h118.385V250.563z" fill="#FFFFFF"/>
	</g>
</g>
<g>
	<g>
		<path d="M439.109,196.593H249.804c-5.523,0-10,4.478-10,10v53.97c0,5.522,4.477,10,10,10h189.305c5.522,0,10-4.478,10-10v-53.97    C449.109,201.071,444.631,196.593,439.109,196.593z M429.11,250.563H259.804v-33.97H429.11V250.563z" fill="#FFFFFF"/>
	</g>
</g>
<g>
</g>
<g>
</g>
<g>
</g>
<g>
</g>
<g>
</g>
<g>
</g>
<g>
</g>
<g>
</g>
<g>
</g>
<g>
</g>
<g>
</g>
<g>
</g>
<g>
</g>
<g>
</g>
<g>
</g>
</svg>
